{
    "products":[
       {
          "category":"5f756915e96e20160f6b6d48",
          "price":0,
          "manufacturer":"",
          "keywords":"",
          "name":"Proform Wall Rack",
          "code":"PFBE39520",
          "attributes":[
             {
                "attribute":"5f756aaee96e20160f6b6d55"
             },
             {
                "attribute":"5f756a66e96e20160f6b6d53"
             },
             {
                "attribute":"5f7e9897e96e20160f6ccffd"
             },
             {
                "attribute":"5f7569bae96e20160f6b6d4f"
             }
          ],
          "images":[
             
          ],
          "internalUid":"a0779a4e-0017-4b23-9d43-dd0547178e08",
          "relations":[
             
          ],
          "availableToAllStores":true,
          "comparable":false,
          "id":"5f756e20e96e20160f6b6d77"
       },
       {
          "category":"5f756915e96e20160f6b6d48",
          "price":0,
          "manufacturer":"",
          "keywords":"",
          "name":"Nordictrack GX4.6 Pro",
          "code":"NTEVEX76919",
          "attributes":[
             {
                "attribute":"5f756aaee96e20160f6b6d55"
             },
             {
                "attribute":"5f756a66e96e20160f6b6d53"
             },
             {
                "attribute":"5f7e9897e96e20160f6ccffd"
             },
             {
                "attribute":"5f7569bae96e20160f6b6d4f"
             }
          ],
          "images":[
             
          ],
          "internalUid":"0b7008d4-da60-4e33-a80e-8975e34bc4fa",
          "relations":[
             
          ],
          "availableToAllStores":true,
          "comparable":false,
          "id":"5f756db3e96e20160f6b6d71"
       },
       {
          "category":"5f756915e96e20160f6b6d48",
          "price":0,
          "manufacturer":"",
          "keywords":"",
          "name":"ProForm Tour de France CLC",
          "code":"PFEX73920",
          "attributes":[
             {
                "attribute":"5f756aaee96e20160f6b6d55"
             },
             {
                "attribute":"5f756a66e96e20160f6b6d53"
             },
             {
                "attribute":"5f7e9897e96e20160f6ccffd"
             },
             {
                "attribute":"5f7569bae96e20160f6b6d4f"
             }
          ],
          "images":[
             
          ],
          "internalUid":"d8e25fb4-fb23-4197-bca8-c275265b8d00",
          "relations":[
             
          ],
          "availableToAllStores":true,
          "comparable":false,
          "id":"5f756dc3e96e20160f6b6d72"
       },
       {
          "category":"5f756915e96e20160f6b6d48",
          "price":0,
          "manufacturer":"",
          "keywords":"",
          "name":"Nordictrack GX4.5 Pro",
          "code":"NTEVEX77020",
          "attributes":[
             {
                "attribute":"5f756aaee96e20160f6b6d55"
             },
             {
                "attribute":"5f756a66e96e20160f6b6d53"
             },
             {
                "attribute":"5f7e9897e96e20160f6ccffd"
             },
             {
                "attribute":"5f7569bae96e20160f6b6d4f"
             }
          ],
          "images":[
             
          ],
          "internalUid":"f5de08f6-c61a-49f0-b0db-c582d4716447",
          "relations":[
             
          ],
          "availableToAllStores":true,
          "comparable":false,
          "id":"5f756d8ce96e20160f6b6d6f"
       },
       {
          "category":"5f756915e96e20160f6b6d48",
          "price":0,
          "manufacturer":"",
          "keywords":"",
          "name":"Nordictrack VR19",
          "code":"NTEVEX49018",
          "attributes":[
             {
                "attribute":"5f756aaee96e20160f6b6d55"
             },
             {
                "attribute":"5f756a66e96e20160f6b6d53"
             },
             {
                "attribute":"5f7e9897e96e20160f6ccffd"
             },
             {
                "attribute":"5f7569bae96e20160f6b6d4f"
             }
          ],
          "images":[
             
          ],
          "internalUid":"0419802a-6f05-4877-b01e-845c097ba72c",
          "relations":[
             
          ],
          "availableToAllStores":true,
          "comparable":false,
          "id":"5f756d9fe96e20160f6b6d70"
       },
       {
          "category":"5f756915e96e20160f6b6d48",
          "price":0,
          "manufacturer":"",
          "keywords":"",
          "name":"Proform Strength Rack",
          "code":"PFBE05020",
          "attributes":[
             {
                "attribute":"5f756aaee96e20160f6b6d55"
             },
             {
                "attribute":"5f756a66e96e20160f6b6d53"
             },
             {
                "attribute":"5f7e9897e96e20160f6ccffd"
             },
             {
                "attribute":"5f7569bae96e20160f6b6d4f"
             }
          ],
          "images":[
             
          ],
          "internalUid":"4549e967-62e5-4e6d-a2aa-987b3999b059",
          "relations":[
             
          ],
          "availableToAllStores":true,
          "comparable":false,
          "id":"5f756dfae96e20160f6b6d75"
       },
       {
          "category":"5f756915e96e20160f6b6d48",
          "price":0,
          "manufacturer":"",
          "keywords":"",
          "name":"Proform Half Strength Rack",
          "code":"PFBE25020",
          "attributes":[
             {
                "attribute":"5f756aaee96e20160f6b6d55"
             },
             {
                "attribute":"5f756a66e96e20160f6b6d53"
             },
             {
                "attribute":"5f7e9897e96e20160f6ccffd"
             },
             {
                "attribute":"5f7569bae96e20160f6b6d4f"
             }
          ],
          "images":[
             
          ],
          "internalUid":"81cf2f1d-bf73-463d-a788-3a0629fbccec",
          "relations":[
             
          ],
          "availableToAllStores":true,
          "comparable":false,
          "id":"5f756e0be96e20160f6b6d76"
       },
       {
          "category":"5f756915e96e20160f6b6d48",
          "price":0,
          "manufacturer":"",
          "keywords":"",
          "name":"Proform Flat Bench",
          "code":"PFBE09620",
          "attributes":[
             {
                "attribute":"5f756aaee96e20160f6b6d55"
             },
             {
                "attribute":"5f756a66e96e20160f6b6d53"
             },
             {
                "attribute":"5f7e9897e96e20160f6ccffd"
             },
             {
                "attribute":"5f7569bae96e20160f6b6d4f"
             }
          ],
          "images":[
             
          ],
          "internalUid":"cca4e35f-fdbc-43c8-b0e9-2f0e23de0976",
          "relations":[
             
          ],
          "availableToAllStores":true,
          "comparable":false,
          "id":"5f756dd9e96e20160f6b6d73"
       },
       {
          "category":"5f756915e96e20160f6b6d48",
          "price":0,
          "manufacturer":"",
          "keywords":"",
          "name":"Proform FID Bench",
          "code":"PFBE19720",
          "attributes":[
             {
                "attribute":"5f756aaee96e20160f6b6d55"
             },
             {
                "attribute":"5f756a66e96e20160f6b6d53"
             },
             {
                "attribute":"5f7e9897e96e20160f6ccffd"
             },
             {
                "attribute":"5f7569bae96e20160f6b6d4f"
             }
          ],
          "images":[
             
          ],
          "internalUid":"0c95c383-3382-44ad-91ee-01ac68aad243",
          "relations":[
             
          ],
          "availableToAllStores":true,
          "comparable":false,
          "id":"5f756de8e96e20160f6b6d74"
       },
       {
          "category":"5f756915e96e20160f6b6d48",
          "price":0,
          "manufacturer":"",
          "keywords":"",
          "name":"Proform Ergostride",
          "code":"PFEL04817",
          "attributes":[
             {
                "attribute":"5f756aaee96e20160f6b6d55"
             },
             {
                "attribute":"5f756a66e96e20160f6b6d53"
             },
             {
                "attribute":"5f7e9897e96e20160f6ccffd"
             },
             {
                "attribute":"5f7569bae96e20160f6b6d4f"
             }
          ],
          "images":[
             
          ],
          "internalUid":"47c2e1a2-e94b-433a-a36f-db699f4cd398",
          "relations":[
             
          ],
          "availableToAllStores":true,
          "comparable":false,
          "id":"5f756c97e96e20160f6b6d65"
       },
       {
          "category":"5f756915e96e20160f6b6d48",
          "price":0,
          "manufacturer":"",
          "keywords":"",
          "name":"Proform 420E",
          "code":"PFEL49720-INT",
          "attributes":[
             {
                "attribute":"5f756aaee96e20160f6b6d55"
             },
             {
                "attribute":"5f756a66e96e20160f6b6d53"
             },
             {
                "attribute":"5f7e9897e96e20160f6ccffd"
             },
             {
                "attribute":"5f7569bae96e20160f6b6d4f"
             }
          ],
          "images":[
             
          ],
          "internalUid":"7bb95835-c14f-4cf6-baa2-b3ccd5dfbdc1",
          "relations":[
             
          ],
          "availableToAllStores":true,
          "comparable":false,
          "id":"5f756cb9e96e20160f6b6d66"
       },
       {
          "category":"5f756915e96e20160f6b6d48",
          "price":0,
          "manufacturer":"",
          "keywords":"",
          "name":"Nordictrack T9.5",
          "code":"NETL14819",
          "attributes":[
             {
                "attribute":"5f756aaee96e20160f6b6d55"
             },
             {
                "attribute":"5f756a66e96e20160f6b6d53"
             },
             {
                "attribute":"5f7e9897e96e20160f6ccffd"
             },
             {
                "attribute":"5f7569bae96e20160f6b6d4f"
             }
          ],
          "images":[
             
          ],
          "internalUid":"0681bc09-b7b5-491b-9dc8-aec8728137d8",
          "relations":[
             
          ],
          "availableToAllStores":true,
          "comparable":false,
          "id":"5f756c74e96e20160f6b6d63"
       },
       {
          "category":"5f756915e96e20160f6b6d48",
          "price":0,
          "manufacturer":"",
          "keywords":"",
          "name":"Nordictrack C2950",
          "code":"NETL28719",
          "attributes":[
             {
                "attribute":"5f756aaee96e20160f6b6d55"
             },
             {
                "attribute":"5f756a66e96e20160f6b6d53"
             },
             {
                "attribute":"5f7e9897e96e20160f6ccffd"
             },
             {
                "attribute":"5f7569bae96e20160f6b6d4f"
             }
          ],
          "images":[
             
          ],
          "internalUid":"a0df238d-7be2-4b1e-b0af-53b4d6b3737a",
          "relations":[
             
          ],
          "availableToAllStores":true,
          "comparable":false,
          "id":"5f756c84e96e20160f6b6d64"
       },
       {
          "category":"5f756915e96e20160f6b6d48",
          "price":0,
          "manufacturer":"",
          "keywords":"",
          "name":"NordicTrack Treadmill Mat",
          "code":"NTMC408017",
          "attributes":[
             {
                "attribute":"5f756aaee96e20160f6b6d55"
             },
             {
                "attribute":"5f756a66e96e20160f6b6d53"
             },
             {
                "attribute":"5f7e9897e96e20160f6ccffd"
             },
             {
                "attribute":"5f7569bae96e20160f6b6d4f"
             }
          ],
          "images":[
             
          ],
          "internalUid":"d546a7db-3ac5-42bb-9fd2-bb5e8cf8f46e",
          "relations":[
             
          ],
          "availableToAllStores":true,
          "comparable":false,
          "id":"5f756b5ce96e20160f6b6d58"
       },
       {
          "category":"5f756915e96e20160f6b6d48",
          "price":0,
          "manufacturer":"",
          "keywords":"",
          "name":"ICON treadmill accessory kit",
          "code":"TMAK12",
          "attributes":[
             {
                "attribute":"5f756aaee96e20160f6b6d55"
             },
             {
                "attribute":"5f756a66e96e20160f6b6d53"
             },
             {
                "attribute":"5f7e9897e96e20160f6ccffd"
             },
             {
                "attribute":"5f7569bae96e20160f6b6d4f"
             }
          ],
          "images":[
             
          ],
          "internalUid":"3ce705f8-d46d-4db2-8142-7e5872661b4f",
          "relations":[
             
          ],
          "availableToAllStores":true,
          "comparable":false,
          "id":"5f756b72e96e20160f6b6d59"
       },
       {
          "category":"5f756915e96e20160f6b6d48",
          "price":0,
          "manufacturer":"",
          "keywords":"",
          "name":"Proform Equipment Mat",
          "code":"PFMC408017",
          "attributes":[
             {
                "attribute":"5f756aaee96e20160f6b6d55"
             },
             {
                "attribute":"5f756a66e96e20160f6b6d53"
             },
             {
                "attribute":"5f7e9897e96e20160f6ccffd"
             },
             {
                "attribute":"5f7569bae96e20160f6b6d4f"
             }
          ],
          "images":[
             
          ],
          "internalUid":"b8c3bb7e-7851-4c5b-81c6-d209650a8b9a",
          "relations":[
             
          ],
          "availableToAllStores":true,
          "comparable":false,
          "id":"5f756b39e96e20160f6b6d57"
       },
       {
          "category":"5f756915e96e20160f6b6d48",
          "price":0,
          "manufacturer":"",
          "keywords":"",
          "name":"Nordictrack S25i",
          "code":"NTL79520-INT",
          "attributes":[
             {
                "value":"<ul>\n\t<li>Fit bluetooth smart enabled giving you access to hundreds of interactive workouts*;</li>\n\t<li>Large 5&quot; LCD display; 41cm x 127cm walking / running deck;</li>\n\t<li>16 built-in workouts -</li>\n\t<li>(disclaimer *iFit at an additional cost)</li>\n</ul>\n",
                "attribute":"5f756a66e96e20160f6b6d53",
                "featured":false
             },
             {
                "attribute":"5f7e9897e96e20160f6ccffd",
                "value":"<ul>\n\t<li>2.0 Continuous Horsepower (CHP motor); Walking belt 41cm (w) x 127cm (L);</li>\n\t<li>Large 5&quot; LCD display, Quick speed/incline controls:; Speed 0-16kph; Incline 0-10% ;</li>\n\t<li>16 onboard workouts; Spacesaver design;</li>\n\t<li>Proshox cushioning system,</li>\n\t<li>100kg user weight capacity;</li>\n\t<li>2 year parts and 1 year service warranty</li>\n</ul>\n",
                "featured":false
             },
             {
                "attribute":"5f756aaee96e20160f6b6d55"
             },
             {
                "attribute":"5f7569bae96e20160f6b6d4f"
             }
          ],
          "images":[
             
          ],
          "internalUid":"6a2a3aa9-7d22-4c8a-b99e-fefd632b4306",
          "relations":[
             
          ],
          "availableToAllStores":true,
          "comparable":false,
          "id":"5f756c51e96e20160f6b6d61"
       },
       {
          "category":"5f756915e96e20160f6b6d48",
          "price":999,
          "manufacturer":"",
          "keywords":"",
          "name":"Nordictrack RX800",
          "code":"NTEVRW59216",
          "attributes":[
             {
                "value":"899",
                "attribute":"5f7569bae96e20160f6b6d4f",
                "featured":false
             },
             {
                "attribute":"5f756aaee96e20160f6b6d55"
             },
             {
                "attribute":"5f756a66e96e20160f6b6d53"
             },
             {
                "attribute":"5f7e9897e96e20160f6ccffd"
             }
          ],
          "images":[
             
          ],
          "internalUid":"b711bdc0-9f80-4251-ac7c-da0a9ea440a7",
          "relations":[
             
          ],
          "availableToAllStores":true,
          "comparable":false,
          "id":"5f756bd3e96e20160f6b6d5b"
       },
       {
          "category":"5f756915e96e20160f6b6d48",
          "price":89,
          "manufacturer":"",
          "keywords":"",
          "name":"iFit Smart Beat Heart Rate Band",
          "code":"IFAHR119",
          "attributes":[
             {
                "attribute":"5f756aaee96e20160f6b6d55"
             },
             {
                "attribute":"5f756a66e96e20160f6b6d53"
             },
             {
                "attribute":"5f7e9897e96e20160f6ccffd"
             },
             {
                "attribute":"5f7569bae96e20160f6b6d4f"
             }
          ],
          "images":[
             
          ],
          "internalUid":"703c61fc-b5ed-4f87-903b-f03dd728a9e5",
          "relations":[
             
          ],
          "availableToAllStores":true,
          "comparable":false,
          "id":"5f756b9be96e20160f6b6d5a"
       },
       {
          "category":"5f756915e96e20160f6b6d48",
          "price":1499,
          "manufacturer":"",
          "keywords":"",
          "name":"Proform 305 CST",
          "code":"PFTL44920-INT",
          "attributes":[
             {
                "attribute":"5f756aaee96e20160f6b6d55"
             },
             {
                "attribute":"5f756a66e96e20160f6b6d53"
             },
             {
                "attribute":"5f7e9897e96e20160f6ccffd"
             },
             {
                "attribute":"5f7569bae96e20160f6b6d4f"
             }
          ],
          "images":[
             
          ],
          "internalUid":"0ebf9e6a-bf9a-4989-a450-6374712dedf7",
          "relations":[
             
          ],
          "availableToAllStores":true,
          "comparable":false,
          "id":"5f756c0be96e20160f6b6d5e"
       },
       {
          "category":"5f756915e96e20160f6b6d48",
          "price":0,
          "manufacturer":"",
          "keywords":"",
          "name":"Proform 320 CSX",
          "code":"PFEVEX72917",
          "attributes":[
             {
                "attribute":"5f756aaee96e20160f6b6d55"
             },
             {
                "attribute":"5f756a66e96e20160f6b6d53"
             },
             {
                "attribute":"5f7e9897e96e20160f6ccffd"
             },
             {
                "attribute":"5f7569bae96e20160f6b6d4f"
             }
          ],
          "images":[
             
          ],
          "internalUid":"af5399b5-437c-4b47-9d9a-29f9ac57efb1",
          "relations":[
             
          ],
          "availableToAllStores":true,
          "comparable":false,
          "id":"5f756d64e96e20160f6b6d6d"
       },
       {
          "category":"5f756915e96e20160f6b6d48",
          "price":0,
          "manufacturer":"",
          "keywords":"",
          "name":"Proform GX4.4",
          "code":"NTEVEX75017",
          "attributes":[
             {
                "attribute":"5f756aaee96e20160f6b6d55"
             },
             {
                "attribute":"5f756a66e96e20160f6b6d53"
             },
             {
                "attribute":"5f7e9897e96e20160f6ccffd"
             },
             {
                "attribute":"5f7569bae96e20160f6b6d4f"
             }
          ],
          "images":[
             
          ],
          "internalUid":"970f32d2-6b3c-40b6-ab4e-cf580f79f395",
          "relations":[
             
          ],
          "availableToAllStores":true,
          "comparable":false,
          "id":"5f756d75e96e20160f6b6d6e"
       },
       {
          "category":"5f756915e96e20160f6b6d48",
          "price":0,
          "manufacturer":"",
          "keywords":"",
          "name":"Proform 210 CSX",
          "code":"PFEVEX73017",
          "attributes":[
             {
                "attribute":"5f756aaee96e20160f6b6d55"
             },
             {
                "attribute":"5f756a66e96e20160f6b6d53"
             },
             {
                "attribute":"5f7e9897e96e20160f6ccffd"
             },
             {
                "attribute":"5f7569bae96e20160f6b6d4f"
             }
          ],
          "images":[
             
          ],
          "internalUid":"e47699a8-97e9-4bb6-8cce-c05672b82142",
          "relations":[
             
          ],
          "availableToAllStores":true,
          "comparable":false,
          "id":"5f756d3fe96e20160f6b6d6b"
       },
       {
          "category":"5f756915e96e20160f6b6d48",
          "price":0,
          "manufacturer":"",
          "keywords":"",
          "name":"Proform 210 CSX (NEW)",
          "code":"PFEX21020-INT",
          "attributes":[
             {
                "attribute":"5f756aaee96e20160f6b6d55"
             },
             {
                "attribute":"5f756a66e96e20160f6b6d53"
             },
             {
                "attribute":"5f7e9897e96e20160f6ccffd"
             },
             {
                "attribute":"5f7569bae96e20160f6b6d4f"
             }
          ],
          "images":[
             
          ],
          "internalUid":"8402f3fe-843e-4c86-b356-b564b68f4330",
          "relations":[
             
          ],
          "availableToAllStores":true,
          "comparable":false,
          "id":"5f756d51e96e20160f6b6d6c"
       },
       {
          "category":"5f756915e96e20160f6b6d48",
          "price":0,
          "manufacturer":"",
          "keywords":"",
          "name":"Nordictrack S45i",
          "code":"NTL99520-INT",
          "attributes":[
             {
                "attribute":"5f756aaee96e20160f6b6d55"
             },
             {
                "attribute":"5f756a66e96e20160f6b6d53"
             },
             {
                "attribute":"5f7e9897e96e20160f6ccffd"
             },
             {
                "attribute":"5f7569bae96e20160f6b6d4f"
             }
          ],
          "images":[
             
          ],
          "internalUid":"79c673f7-7383-4712-a52e-d2bd19abc231",
          "relations":[
             
          ],
          "availableToAllStores":true,
          "comparable":false,
          "id":"5f756c61e96e20160f6b6d62"
       },
       {
          "category":"5f756915e96e20160f6b6d48",
          "price":0,
          "manufacturer":"",
          "keywords":"",
          "name":"Proform City L6",
          "code":"PFTL28820-INT",
          "attributes":[
             {
                "attribute":"5f756aaee96e20160f6b6d55"
             },
             {
                "attribute":"5f756a66e96e20160f6b6d53"
             },
             {
                "attribute":"5f7e9897e96e20160f6ccffd"
             },
             {
                "attribute":"5f7569bae96e20160f6b6d4f"
             }
          ],
          "images":[
             
          ],
          "internalUid":"07c5c456-1b05-4786-9de7-1e64c5a1fda7",
          "relations":[
             
          ],
          "availableToAllStores":true,
          "comparable":false,
          "id":"5f756c2be96e20160f6b6d5f"
       },
       {
          "category":"5f756915e96e20160f6b6d48",
          "price":0,
          "manufacturer":"",
          "keywords":"",
          "name":"Proform 505CST",
          "code":"PFTL59420-INT",
          "attributes":[
             {
                "attribute":"5f756aaee96e20160f6b6d55"
             },
             {
                "attribute":"5f756a66e96e20160f6b6d53"
             },
             {
                "attribute":"5f7e9897e96e20160f6ccffd"
             },
             {
                "attribute":"5f7569bae96e20160f6b6d4f"
             }
          ],
          "images":[
             
          ],
          "internalUid":"5f4c0b49-815e-485a-90d6-8bde5b531044",
          "relations":[
             
          ],
          "availableToAllStores":true,
          "comparable":false,
          "id":"5f756c3de96e20160f6b6d60"
       },
       {
          "category":"5f756915e96e20160f6b6d48",
          "price":0,
          "manufacturer":"",
          "keywords":"",
          "name":"Proform Cardio Hiit",
          "code":"PFEVEL71216",
          "attributes":[
             {
                "attribute":"5f756aaee96e20160f6b6d55"
             },
             {
                "attribute":"5f756a66e96e20160f6b6d53"
             },
             {
                "attribute":"5f7e9897e96e20160f6ccffd"
             },
             {
                "attribute":"5f7569bae96e20160f6b6d4f"
             }
          ],
          "images":[
             
          ],
          "internalUid":"c475f711-489c-431a-9efd-aa4781f5bb7c",
          "relations":[
             
          ],
          "availableToAllStores":true,
          "comparable":false,
          "id":"5f756cf1e96e20160f6b6d69"
       },
       {
          "category":"5f756915e96e20160f6b6d48",
          "price":0,
          "manufacturer":"",
          "keywords":"",
          "name":"Proform Carbon Hiit H7",
          "code":"PFEL09920-INT",
          "attributes":[
             {
                "attribute":"5f756aaee96e20160f6b6d55"
             },
             {
                "attribute":"5f756a66e96e20160f6b6d53"
             },
             {
                "attribute":"5f7e9897e96e20160f6ccffd"
             },
             {
                "attribute":"5f7569bae96e20160f6b6d4f"
             }
          ],
          "images":[
             
          ],
          "internalUid":"0eccb986-7fd4-4a28-90a8-04d0ee3822b6",
          "relations":[
             
          ],
          "availableToAllStores":true,
          "comparable":false,
          "id":"5f756d0ee96e20160f6b6d6a"
       },
       {
          "category":"5f756915e96e20160f6b6d48",
          "price":0,
          "manufacturer":"",
          "keywords":"",
          "name":"Nordictrack C5.5",
          "code":"NTEVEL69818",
          "attributes":[
             {
                "attribute":"5f756aaee96e20160f6b6d55"
             },
             {
                "attribute":"5f756a66e96e20160f6b6d53"
             },
             {
                "attribute":"5f7e9897e96e20160f6ccffd"
             },
             {
                "attribute":"5f7569bae96e20160f6b6d4f"
             }
          ],
          "images":[
             
          ],
          "internalUid":"f42a338f-bf84-4f48-8983-606a4e7352ad",
          "relations":[
             
          ],
          "availableToAllStores":true,
          "comparable":false,
          "id":"5f756ccfe96e20160f6b6d67"
       },
       {
          "category":"5f756915e96e20160f6b6d48",
          "price":0,
          "manufacturer":"",
          "keywords":"",
          "name":"Nordictrack C7.5",
          "code":"NTEVEL89818",
          "attributes":[
             {
                "attribute":"5f756aaee96e20160f6b6d55"
             },
             {
                "attribute":"5f756a66e96e20160f6b6d53"
             },
             {
                "attribute":"5f7e9897e96e20160f6ccffd"
             },
             {
                "attribute":"5f7569bae96e20160f6b6d4f"
             }
          ],
          "images":[
             
          ],
          "internalUid":"e820cc1b-e75a-4975-9000-7ec23fd002b5",
          "relations":[
             
          ],
          "availableToAllStores":true,
          "comparable":false,
          "id":"5f756ce1e96e20160f6b6d68"
       }
    ],
    "categories":[
       {
          "startDate":null,
          "endDate":null,
          "parent":null,
          "name":"Root",
          "internalUid":"60d5373c-d81c-4178-8dad-a2133a7b0cc6",
          "products":[
             
          ],
          "sortOrder":0,
          "id":"5f756915e96e20160f6b6d48"
       },
       {
          "startDate":null,
          "endDate":null,
          "parent":"5f756915e96e20160f6b6d48",
          "name":"Treadmill",
          "image":"5f7e7af9e96e20160f6ccff1",
          "internalUid":"f2413df4-d316-40f9-ac8f-6da950f52bec",
          "products":[
             "5f756c0be96e20160f6b6d5e",
             "5f756c2be96e20160f6b6d5f",
             "5f756c3de96e20160f6b6d60",
             "5f756c51e96e20160f6b6d61",
             "5f756c61e96e20160f6b6d62",
             "5f756c74e96e20160f6b6d63"
          ],
          "sortOrder":0,
          "id":"5f756925e96e20160f6b6d49"
       },
       {
          "startDate":null,
          "endDate":null,
          "parent":"5f756915e96e20160f6b6d48",
          "name":"Elliptical",
          "image":"5f7e7af9e96e20160f6ccff3",
          "internalUid":"bedcbfcb-bc3b-4ef2-97ad-a52c97840929",
          "products":[
             "5f756c97e96e20160f6b6d65",
             "5f756cb9e96e20160f6b6d66",
             "5f756ccfe96e20160f6b6d67",
             "5f756ce1e96e20160f6b6d68",
             "5f756cf1e96e20160f6b6d69",
             "5f756d0ee96e20160f6b6d6a"
          ],
          "sortOrder":0,
          "id":"5f75692de96e20160f6b6d4a"
       },
       {
          "startDate":null,
          "endDate":null,
          "parent":"5f756915e96e20160f6b6d48",
          "name":"Exercise Bikes",
          "image":"5f7e7af9e96e20160f6ccff2",
          "internalUid":"db40320e-bd97-4644-ba9f-770ef8ac7845",
          "products":[
             "5f756d3fe96e20160f6b6d6b",
             "5f756d51e96e20160f6b6d6c",
             "5f756d64e96e20160f6b6d6d",
             "5f756d75e96e20160f6b6d6e",
             "5f756d8ce96e20160f6b6d6f",
             "5f756d9fe96e20160f6b6d70",
             "5f756db3e96e20160f6b6d71",
             "5f756dc3e96e20160f6b6d72"
          ],
          "sortOrder":0,
          "id":"5f756938e96e20160f6b6d4b"
       },
       {
          "startDate":null,
          "endDate":null,
          "parent":"5f756915e96e20160f6b6d48",
          "name":"Rower",
          "image":"5f7e7af9e96e20160f6ccff5",
          "internalUid":"9e23e065-6661-4696-898e-dd75c4925322",
          "products":[
             "5f756bd3e96e20160f6b6d5b"
          ],
          "sortOrder":0,
          "id":"5f756949e96e20160f6b6d4c"
       },
       {
          "startDate":null,
          "endDate":null,
          "parent":"5f756915e96e20160f6b6d48",
          "name":"Strength",
          "image":"5f7e7af9e96e20160f6ccff4",
          "internalUid":"fa2ee4e4-f32b-4041-8b55-db57e737c5d6",
          "products":[
             "5f756dd9e96e20160f6b6d73",
             "5f756de8e96e20160f6b6d74",
             "5f756dfae96e20160f6b6d75",
             "5f756e0be96e20160f6b6d76",
             "5f756e20e96e20160f6b6d77"
          ],
          "sortOrder":0,
          "id":"5f756955e96e20160f6b6d4d"
       },
       {
          "startDate":null,
          "endDate":null,
          "parent":"5f756915e96e20160f6b6d48",
          "name":"Accessories",
          "image":"5f7e7af9e96e20160f6ccff0",
          "internalUid":"e25b9d71-c491-4be3-b4fa-4df5fdea8b06",
          "products":[
             "5f756b39e96e20160f6b6d57",
             "5f756b5ce96e20160f6b6d58",
             "5f756b72e96e20160f6b6d59",
             "5f756b9be96e20160f6b6d5a"
          ],
          "sortOrder":0,
          "id":"5f75695de96e20160f6b6d4e"
       }
    ],
    "attributeGroups":[
       
    ],
    "attributes":[
       {
          "controlType":"textbox",
          "name":"Short_Description",
          "category":"5f756915e96e20160f6b6d48",
          "internalUid":"6ec8f624-fb88-4ccf-b207-a5012dd7258c",
          "relations":[
             
          ],
          "values":null,
          "label":"Short Description",
          "customizable":false,
          "searchable":false,
          "unique":false,
          "visible":true,
          "required":false,
          "type":"product",
          "id":"5f756aaee96e20160f6b6d55"
       },
       {
          "controlType":"richtextbox",
          "name":"Features",
          "category":"5f756915e96e20160f6b6d48",
          "internalUid":"0da5caa4-6161-42d5-b914-d7b8740a0884",
          "relations":[
             
          ],
          "values":[
             
          ],
          "label":"Features",
          "customizable":false,
          "searchable":false,
          "unique":false,
          "visible":true,
          "required":false,
          "type":"product",
          "id":"5f756a66e96e20160f6b6d53"
       },
       {
          "controlType":"richtextbox",
          "name":"Specifications",
          "category":"5f756915e96e20160f6b6d48",
          "internalUid":"30df5b9b-07b8-4772-950c-6c6d40986f2c",
          "relations":[
             
          ],
          "values":[
             
          ],
          "label":"Specifications",
          "customizable":false,
          "searchable":false,
          "unique":false,
          "visible":true,
          "required":false,
          "type":"product",
          "id":"5f7e9897e96e20160f6ccffd"
       },
       {
          "controlType":"numericbox",
          "category":"5f756915e96e20160f6b6d48",
          "name":"Promo_Price",
          "unit":"$",
          "internalUid":"47d6620a-056b-4906-ad11-18f7bb6b53ea",
          "relations":[
             
          ],
          "values":null,
          "label":"Promo_Price",
          "customizable":false,
          "searchable":true,
          "unique":false,
          "visible":true,
          "required":false,
          "type":"product",
          "id":"5f7569bae96e20160f6b6d4f"
       }
    ],
    "relations":[
       
    ],
    "files":[
       {
          "name":"6de3d0c2-7ec6-4680-b3b1-d0b22eea71ce.png",
          "title":"rowers.png",
          "folder":null,
          "extension":".png",
          "mime":"image/png",
          "path":"/files/6de3d0c2-7ec6-4680-b3b1-d0b22eea71ce.png",
          "thumbnail":"/files/thumb/6de3d0c2-7ec6-4680-b3b1-d0b22eea71ce.png",
          "hash":"1fa5a90f1ce4538c8db77920db06e87922077240",
          "thumbnailHash":"c6f66253b856d630798ee902994090631f8f2863",
          "trashed":false,
          "inCDN":false,
          "size":126687,
          "id":"5f7e7af9e96e20160f6ccff5"
       },
       {
          "name":"0a1fbf8f-06c6-4f8b-b7f4-bda514611214.png",
          "title":"treadmills.png",
          "folder":null,
          "extension":".png",
          "mime":"image/png",
          "path":"/files/0a1fbf8f-06c6-4f8b-b7f4-bda514611214.png",
          "thumbnail":"/files/thumb/0a1fbf8f-06c6-4f8b-b7f4-bda514611214.png",
          "hash":"6602f719949dd9948315fe702da3fbb04ef0a348",
          "thumbnailHash":"6388362568b1b5f5bb090444736ee8d080502d05",
          "trashed":false,
          "inCDN":false,
          "size":114220,
          "id":"5f7e7af9e96e20160f6ccff1"
       },
       {
          "name":"fc8f3db2-6afa-4a10-8ee2-1386a592327c.png",
          "title":"ellipticals.png",
          "folder":null,
          "extension":".png",
          "mime":"image/png",
          "path":"/files/fc8f3db2-6afa-4a10-8ee2-1386a592327c.png",
          "thumbnail":"/files/thumb/fc8f3db2-6afa-4a10-8ee2-1386a592327c.png",
          "hash":"4dbf4c7354ca18aa2a76afbd8739257cc18f74b8",
          "thumbnailHash":"881638faca12eddf0a27ef03b08947449bb84540",
          "trashed":false,
          "inCDN":false,
          "size":140305,
          "id":"5f7e7af9e96e20160f6ccff3"
       },
       {
          "name":"f68317ec-ae39-4b37-8c37-0dd54e23bd54.png",
          "title":"bikes.png",
          "folder":null,
          "extension":".png",
          "mime":"image/png",
          "path":"/files/f68317ec-ae39-4b37-8c37-0dd54e23bd54.png",
          "thumbnail":"/files/thumb/f68317ec-ae39-4b37-8c37-0dd54e23bd54.png",
          "hash":"3f5ff44afa1a1c86b35ec95372ea48d5626788af",
          "thumbnailHash":"a1a96646126c106a50e2d159a96116f6a4e66bfa",
          "trashed":false,
          "inCDN":false,
          "size":93154,
          "id":"5f7e7af9e96e20160f6ccff2"
       },
       {
          "name":"ebac1014-071a-4cfe-9ebc-0c4a5fe52dab.png",
          "title":"accessories.png",
          "folder":null,
          "extension":".png",
          "mime":"image/png",
          "path":"/files/ebac1014-071a-4cfe-9ebc-0c4a5fe52dab.png",
          "thumbnail":"/files/thumb/ebac1014-071a-4cfe-9ebc-0c4a5fe52dab.png",
          "hash":"7bd64b9aaf3980fb822eaeba0485a9d17aa00b46",
          "thumbnailHash":"666e99c352bccdc4a26090916d70567174aafe03",
          "trashed":false,
          "inCDN":false,
          "size":57258,
          "id":"5f7e7af9e96e20160f6ccff0"
       },
       {
          "name":"069eca0f-764e-43a2-b70b-1157fd096cec.png",
          "title":"strength.png",
          "folder":null,
          "extension":".png",
          "mime":"image/png",
          "path":"/files/069eca0f-764e-43a2-b70b-1157fd096cec.png",
          "thumbnail":"/files/thumb/069eca0f-764e-43a2-b70b-1157fd096cec.png",
          "hash":"1ae0572bfe71d39884dd5a0efd69163bbbab19b9",
          "thumbnailHash":"fad74a86396f397536867d560ef2f10aa02d7d94",
          "trashed":false,
          "inCDN":false,
          "size":75658,
          "id":"5f7e7af9e96e20160f6ccff4"
       }
    ],
    "settings":[
       
    ],
    "tags":[
       
    ],
    "ack":"success",
    "ackCode":200,
    "build":"4.2.0.743",
    "timestamp":"2020-10-08T11:36:40.684Z",
    "LastDataUpdateAt":"2020-10-08T06:02:50.329Z"
 }